^C:\USERS\LUJUZ\DOCUMENTS\PGR\SEMEMESTRALKA\SPLINE.CPP
/c /I"C:\USERS\LUJUZ\DOCUMENTS\PGR\PGR-FRAMEWORK\INCLUDE" /ZI /nologo /W3 /WX- /diagnostics:column /Od /Oy- /D WIN32 /D _DEBUG /D _CONSOLE /D _VC80_UPGRADE=0x0710 /Gm- /EHsc /RTC1 /MDd /GS /fp:precise /Zc:wchar_t /Zc:forScope /Zc:inline /Fo"DEBUG\\" /Fd"DEBUG\VC143.PDB" /external:W3 /Gd /TP /analyze- /FC C:\USERS\LUJUZ\DOCUMENTS\PGR\SEMEMESTRALKA\SPLINE.CPP
^C:\USERS\LUJUZ\DOCUMENTS\PGR\SEMEMESTRALKA\MAIN.CPP
/c /I"C:\USERS\LUJUZ\DOCUMENTS\PGR\PGR-FRAMEWORK\INCLUDE" /ZI /nologo /W3 /WX- /diagnostics:column /Od /Oy- /D WIN32 /D _DEBUG /D _CONSOLE /D _VC80_UPGRADE=0x0710 /Gm- /EHsc /RTC1 /MDd /GS /fp:precise /Zc:wchar_t /Zc:forScope /Zc:inline /Fo"DEBUG\\" /Fd"DEBUG\VC143.PDB" /external:W3 /Gd /TP /analyze- /FC C:\USERS\LUJUZ\DOCUMENTS\PGR\SEMEMESTRALKA\MAIN.CPP
^C:\USERS\LUJUZ\DOCUMENTS\PGR\SEMEMESTRALKA\RENDER_STUFF.CPP
/c /I"C:\USERS\LUJUZ\DOCUMENTS\PGR\PGR-FRAMEWORK\INCLUDE" /ZI /nologo /W3 /WX- /diagnostics:column /Od /Oy- /D WIN32 /D _DEBUG /D _CONSOLE /D _VC80_UPGRADE=0x0710 /Gm- /EHsc /RTC1 /MDd /GS /fp:precise /Zc:wchar_t /Zc:forScope /Zc:inline /Fo"DEBUG\\" /Fd"DEBUG\VC143.PDB" /external:W3 /Gd /TP /analyze- /FC C:\USERS\LUJUZ\DOCUMENTS\PGR\SEMEMESTRALKA\RENDER_STUFF.CPP
^C:\USERS\LUJUZ\DOCUMENTS\PGR\SEMEMESTRALKA\ASTEROIDS.CPP
/c /I"C:\USERS\LUJUZ\DOCUMENTS\PGR\PGR-FRAMEWORK\INCLUDE" /ZI /nologo /W3 /WX- /diagnostics:column /Od /Oy- /D WIN32 /D _DEBUG /D _CONSOLE /D _VC80_UPGRADE=0x0710 /Gm- /EHsc /RTC1 /MDd /GS /fp:precise /Zc:wchar_t /Zc:forScope /Zc:inline /Fo"DEBUG\\" /Fd"DEBUG\VC143.PDB" /external:W3 /Gd /TP /analyze- /FC C:\USERS\LUJUZ\DOCUMENTS\PGR\SEMEMESTRALKA\ASTEROIDS.CPP
^C:\USERS\LUJUZ\DOCUMENTS\PGR\PGR-SEM\SEMEMESTRALKA\SPLINE.CPP
/c /I"C:\USERS\LUJUZ\DOCUMENTS\PGR\PGR-FRAMEWORK\INCLUDE" /ZI /nologo /W3 /WX- /diagnostics:column /Od /Oy- /D WIN32 /D _DEBUG /D _CONSOLE /D _VC80_UPGRADE=0x0710 /Gm- /EHsc /RTC1 /MDd /GS /fp:precise /Zc:wchar_t /Zc:forScope /Zc:inline /Fo"DEBUG\\" /Fd"DEBUG\VC143.PDB" /external:W3 /Gd /TP /analyze- /FC C:\USERS\LUJUZ\DOCUMENTS\PGR\PGR-SEM\SEMEMESTRALKA\SPLINE.CPP
^C:\USERS\LUJUZ\DOCUMENTS\PGR\PGR-SEM\SEMEMESTRALKA\ASTEROIDS.CPP
/c /I"C:\USERS\LUJUZ\DOCUMENTS\PGR\PGR-FRAMEWORK\INCLUDE" /ZI /nologo /W3 /WX- /diagnostics:column /Od /Oy- /D WIN32 /D _DEBUG /D _CONSOLE /D _VC80_UPGRADE=0x0710 /Gm- /EHsc /RTC1 /MDd /GS /fp:precise /Zc:wchar_t /Zc:forScope /Zc:inline /Fo"DEBUG\\" /Fd"DEBUG\VC143.PDB" /external:W3 /Gd /TP /analyze- /FC C:\USERS\LUJUZ\DOCUMENTS\PGR\PGR-SEM\SEMEMESTRALKA\ASTEROIDS.CPP
^C:\USERS\LUJUZ\DOCUMENTS\PGR\PGR-SEM\SEMEMESTRALKA\RENDER_STUFF.CPP
/c /I"C:\USERS\LUJUZ\DOCUMENTS\PGR\PGR-FRAMEWORK\INCLUDE" /ZI /nologo /W3 /WX- /diagnostics:column /Od /Oy- /D WIN32 /D _DEBUG /D _CONSOLE /D _VC80_UPGRADE=0x0710 /Gm- /EHsc /RTC1 /MDd /GS /fp:precise /Zc:wchar_t /Zc:forScope /Zc:inline /Fo"DEBUG\\" /Fd"DEBUG\VC143.PDB" /external:W3 /Gd /TP /analyze- /FC C:\USERS\LUJUZ\DOCUMENTS\PGR\PGR-SEM\SEMEMESTRALKA\RENDER_STUFF.CPP
^D:\ŠKOLA\VÝŠKA\PGR-SEM\SEMEMESTRALKA\ASTEROIDS.CPP
/c /I"D:\ŠKOLA\VÝŠKA\PGR-FRAMEWORK\INCLUDE" /ZI /nologo /W3 /WX- /diagnostics:column /Od /Oy- /D WIN32 /D _DEBUG /D _CONSOLE /D _VC80_UPGRADE=0x0710 /Gm- /EHsc /RTC1 /MDd /GS /fp:precise /Zc:wchar_t /Zc:forScope /Zc:inline /Fo"DEBUG\\" /Fd"DEBUG\VC143.PDB" /external:W3 /Gd /TP /analyze- /FC D:\ŠKOLA\VÝŠKA\PGR-SEM\SEMEMESTRALKA\ASTEROIDS.CPP
^D:\ŠKOLA\VÝŠKA\PGR-SEM\SEMEMESTRALKA\RENDER_STUFF.CPP
/c /I"D:\ŠKOLA\VÝŠKA\PGR-FRAMEWORK\INCLUDE" /ZI /nologo /W3 /WX- /diagnostics:column /Od /Oy- /D WIN32 /D _DEBUG /D _CONSOLE /D _VC80_UPGRADE=0x0710 /Gm- /EHsc /RTC1 /MDd /GS /fp:precise /Zc:wchar_t /Zc:forScope /Zc:inline /Fo"DEBUG\\" /Fd"DEBUG\VC143.PDB" /external:W3 /Gd /TP /analyze- /FC D:\ŠKOLA\VÝŠKA\PGR-SEM\SEMEMESTRALKA\RENDER_STUFF.CPP
^D:\ŠKOLA\VÝŠKA\PGR-SEM\SEMEMESTRALKA\SPLINE.CPP
/c /I"D:\ŠKOLA\VÝŠKA\PGR-FRAMEWORK\INCLUDE" /ZI /nologo /W3 /WX- /diagnostics:column /Od /Oy- /D WIN32 /D _DEBUG /D _CONSOLE /D _VC80_UPGRADE=0x0710 /Gm- /EHsc /RTC1 /MDd /GS /fp:precise /Zc:wchar_t /Zc:forScope /Zc:inline /Fo"DEBUG\\" /Fd"DEBUG\VC143.PDB" /external:W3 /Gd /TP /analyze- /FC D:\ŠKOLA\VÝŠKA\PGR-SEM\SEMEMESTRALKA\SPLINE.CPP
