newmtl initialShadingGroup
illum 4
Kd 0.50 0.50 0.50
Ka 0.00 0.00 0.00
Tf 1.00 1.00 1.00
Ni 1.00
newmtl pasted__HDM_01_03_Cylinder05SG
illum 4
Kd 0.71 0.71 0.71
Ka 0.71 0.71 0.71
Tf 1.00 1.00 1.00
Ni 1.00
Ks 0.18 0.18 0.18
Ns -0.00
newmtl pasted__HDM_01_03_back_bumper_netSG
illum 4
Kd 0.08 0.08 0.08
Ka 0.08 0.08 0.08
Tf 1.00 1.00 1.00
Ni 1.00
Ks 0.36 0.36 0.36
Ns 14.00
newmtl pasted__HDM_01_03_back_bumper_sillSG
illum 4
Kd 0.16 0.16 0.16
Ka 0.16 0.16 0.16
Tf 1.00 1.00 1.00
Ni 1.00
Ks 0.07 0.07 0.07
Ns 2.00
newmtl pasted__HDM_01_03_back_register_plateSG
illum 4
Kd 0.59 0.59 0.59
Ka 0.59 0.59 0.59
Tf 1.00 1.00 1.00
Ni 1.00
Ks 0.00 0.00 0.00
Ns -0.00
newmtl pasted__HDM_01_03_bodySG1
illum 4
Kd 1.00 0.00 0.00
Ka 0.90 0.72 0.00
Tf 1.00 1.00 1.00
Ni 1.00
Ks 1.35 1.35 1.35
Ns 179.02
newmtl pasted__HDM_01_03_bodySG2
illum 4
Kd 0.12 0.12 0.12
Ka 0.12 0.12 0.12
Tf 1.00 1.00 1.00
Ni 1.00
Ks 0.07 0.07 0.07
Ns 2.00
newmtl pasted__HDM_01_03_bodySG3
illum 4
Kd 0.14 0.14 0.14
Ka 0.14 0.14 0.14
Tf 1.00 1.00 1.00
Ni 1.00
Ks 0.04 0.04 0.04
Ns 0.83
newmtl pasted__HDM_01_03_dashboardSG
illum 4
Kd 0.65 0.65 0.65
Ka 0.65 0.65 0.65
Tf 1.00 1.00 1.00
Ni 1.00
Ks 0.39 0.39 0.39
Ns 7.85
newmtl pasted__HDM_01_03_frontSG1
illum 4
Kd 0.04 0.04 0.04
Ka 0.04 0.04 0.04
Tf 0.75 0.75 0.75
Ni 1.00
Ks 1.35 1.35 1.35
Ns 179.02
newmtl pasted__HDM_01_03_frontSG2
illum 4
Kd 0.34 0.34 0.34
Ka 0.34 0.34 0.34
Tf 1.00 1.00 1.00
Ni 1.00
Ks 0.90 0.90 0.90
Ns 30.00
newmtl pasted__HDM_01_03_frontSG3
illum 4
Kd 0.76 0.31 0.17
Ka 0.76 0.31 0.17
Tf 0.92 0.92 0.92
Ni 1.00
Ks 1.35 1.35 1.35
Ns 179.02
newmtl pasted__HDM_01_03_pontiac_logo_frontSG
illum 4
Kd 0.67 0.05 0.00
Ka 0.67 0.05 0.00
Tf 1.00 1.00 1.00
Ni 1.00
Ks 0.00 0.00 0.00
Ns -0.00
newmtl pasted__HDM_01_03_revSG
illum 4
Kd 0.59 0.59 0.59
Ka 0.59 0.59 0.59
Tf 1.00 1.00 1.00
Ni 1.00
Ks 0.00 0.00 0.00
Ns -0.00
newmtl pasted__HDM_01_03_rotorSG
illum 4
Kd 0.78 0.78 0.78
Ka 0.78 0.78 0.78
Tf 1.00 1.00 1.00
Ni 1.00
Ks 0.09 0.09 0.09
Ns -0.00
newmtl pasted__HDM_01_03_side_glassSG1
illum 4
Kd 0.08 0.08 0.08
Ka 0.08 0.08 0.08
Tf 1.00 1.00 1.00
Ni 1.00
Ks 1.35 1.35 1.35
Ns 179.02
newmtl pasted__HDM_01_03_spdSG
illum 4
Kd 0.59 0.59 0.59
Ka 0.59 0.59 0.59
Tf 1.00 1.00 1.00
Ni 1.00
Ks 0.00 0.00 0.00
Ns -0.00
newmtl pasted__HDM_01_03_taillights_glassSG
illum 4
Kd 0.39 0.00 0.00
Ka 0.39 0.00 0.00
Tf 0.92 0.92 0.92
Ni 1.00
Ks 1.35 1.35 1.35
Ns 179.02
